/home/alexis1/Desktop/test/aa/versionNonDistribue/src/main/java/model/Chambre.java
/home/alexis1/Desktop/test/aa/versionNonDistribue/src/main/java/main/Regex.java
/home/alexis1/Desktop/test/aa/versionNonDistribue/src/main/java/model/Client.java
/home/alexis1/Desktop/test/aa/versionNonDistribue/src/main/java/main/Main.java
/home/alexis1/Desktop/test/aa/versionNonDistribue/src/main/java/repository/ReserveHotelAppRepository.java
/home/alexis1/Desktop/test/aa/versionNonDistribue/src/main/java/model/Hotel.java
