repository/RechercheHotelRepository.class
repository/ReserveHotelRepositoryImpl.class
repository/RechercheHotelRepositoryImpl.class
model/EstPartenaire.class
service/ReserveHotelService.class
exceptions/WrongIdOrPassword.class
repository/ReserveHotelRepository.class
model/Hotel.class
repository/HotelRepository.class
server/ReserveHotelServicePublisher.class
service/RechercheHotelServiceImpl.class
exceptions/AucuneOffreTrouvee.class
service/ReserveHotelServiceImpl.class
model/Offre.class
service/RechercheHotelService.class
model/ConvertImage.class
model/Chambre.class
exceptions/ErreurReservation.class
model/Agence.class
model/ConvertLocalDateTime.class
